<svg xmlns="http://www.w3.org/2000/svg" width="55.339" height="48.947" viewBox="0 0 55.339 48.947">
  <g id="Group_80" data-name="Group 80" transform="translate(-333.652 -496.045)">
    <g id="Group_79" data-name="Group 79" transform="translate(333.652 496.045)">
      <path id="Path_269" data-name="Path 269" d="M373,501.286v-4.708a.533.533,0,0,0-1.066,0v4.71Z" transform="translate(-344.845 -496.045)" fill="#fff"/>
      <path id="Path_270" data-name="Path 270" d="M366.345,496.981a.541.541,0,0,0-1.073.135c0,.014,0,.028.007.042l.8,4.619c.354-.089.708-.089,1.066-.178Z" transform="translate(-342.895 -496.18)" fill="#fff"/>
      <path id="Path_271" data-name="Path 271" d="M359.814,498.658a.562.562,0,0,0-1.066.354l1.6,4.441c.354-.089.622-.267.977-.354Z" transform="translate(-340.983 -496.702)" fill="#fff"/>
      <path id="Path_272" data-name="Path 272" d="M353.838,501.461a.518.518,0,0,0-.9.512l.013.021,2.4,4.086c.267-.178.622-.354.888-.533Z" transform="translate(-339.271 -497.552)" fill="#fff"/>
      <path id="Path_273" data-name="Path 273" d="M348.213,505.124a.507.507,0,0,0-.814.6l.014.018,3.02,3.642c.267-.267.533-.444.8-.708Z" transform="translate(-337.642 -498.64)" fill="#fff"/>
      <path id="Path_274" data-name="Path 274" d="M395.58,563.2a.678.678,0,0,0,.444.178.535.535,0,0,0,.354-.09.55.55,0,0,0,.089-.708l-3.019-3.644c-.267.267-.533.444-.8.708Z" transform="translate(-350.901 -514.431)" fill="#e6e6e6"/>
      <path id="Path_275" data-name="Path 275" d="M400.182,558.738c.089.089.178.089.354.089s.267-.089.444-.178a.469.469,0,0,0-.033-.663.491.491,0,0,0-.057-.045l-3.644-3.025a5.676,5.676,0,0,1-.708.8Z" transform="translate(-352.038 -513.257)" fill="#e6e6e6"/>
      <path id="Path_276" data-name="Path 276" d="M343.478,509.807a.507.507,0,0,0-.64.785l.018.014,3.642,3.02a5.844,5.844,0,0,1,.708-.8Z" transform="translate(-336.283 -500.035)" fill="#fff"/>
      <path id="Path_277" data-name="Path 277" d="M403.89,553.56a.324.324,0,0,0,.267.089.488.488,0,0,0,.444-.267.479.479,0,0,0-.113-.669.539.539,0,0,0-.064-.039l-4.086-2.4c-.178.267-.354.622-.533.888Z" transform="translate(-352.993 -511.9)" fill="#e6e6e6"/>
      <path id="Path_278" data-name="Path 278" d="M339.608,515.224a.518.518,0,0,0-.533.888l4.086,2.4c.178-.267.354-.622.533-.888Z" transform="translate(-335.167 -501.633)" fill="#fff"/>
      <path id="Path_279" data-name="Path 279" d="M406.63,547.791h.178a.551.551,0,0,0,.533-.354.558.558,0,0,0-.353-.707h0l-4.444-1.6c-.089.354-.267.622-.354.977Z" transform="translate(-353.69 -510.395)" fill="#e6e6e6"/>
      <path id="Path_280" data-name="Path 280" d="M336.6,521.261a.562.562,0,0,0-.395,1.052l.041.013,4.441,1.6c.089-.354.267-.622.354-.977Z" transform="translate(-334.292 -503.407)" fill="#fff"/>
      <path id="Path_281" data-name="Path 281" d="M334.769,527.8c-.267-.089-.533.178-.622.444s.178.533.444.622l4.708.8c.089-.354.089-.708.178-1.066Z" transform="translate(-333.792 -505.323)" fill="#fff"/>
      <path id="Path_282" data-name="Path 282" d="M408.4,541.719h.089a.565.565,0,0,0,.533-.444c.089-.267-.178-.533-.444-.622l-4.708-.8c-.089.354-.089.708-.178,1.066Z" transform="translate(-354.13 -508.853)" fill="#e6e6e6"/>
      <path id="Path_283" data-name="Path 283" d="M338.893,534.332h-4.708a.533.533,0,0,0,0,1.066h4.708Z" transform="translate(-333.652 -507.239)" fill="#fff"/>
      <path id="Path_284" data-name="Path 284" d="M404.448,535.4h4.708a.533.533,0,0,0,0-1.066h-4.708Z" transform="translate(-354.35 -507.238)" fill="#e6e6e6"/>
      <path id="Path_285" data-name="Path 285" d="M408.616,528.742a.541.541,0,0,0-.178-1.066l-4.619.8c.089.354.089.708.178,1.066Z" transform="translate(-354.167 -505.292)" fill="#e6e6e6"/>
      <path id="Path_286" data-name="Path 286" d="M334.6,540.78a.669.669,0,0,0-.444.622.566.566,0,0,0,.533.444h.089l4.619-.8c-.089-.354-.089-.708-.178-1.066Z" transform="translate(-333.799 -508.89)" fill="#fff"/>
      <path id="Path_287" data-name="Path 287" d="M406.986,522.2a.562.562,0,1,0-.313-1.079l-.041.013-4.441,1.6c.089.354.267.622.354.977Z" transform="translate(-353.69 -503.37)" fill="#e6e6e6"/>
      <path id="Path_288" data-name="Path 288" d="M336.256,546.885a.562.562,0,0,0-.354.708.6.6,0,0,0,.533.354h.178l4.441-1.6c-.089-.354-.267-.622-.354-.977Z" transform="translate(-334.302 -510.466)" fill="#fff"/>
      <path id="Path_289" data-name="Path 289" d="M404.423,516.232a.518.518,0,0,0-.512-.9l-.021.013-4.086,2.4c.178.267.354.622.533.888Z" transform="translate(-352.992 -501.664)" fill="#e6e6e6"/>
      <path id="Path_290" data-name="Path 290" d="M339.065,552.67a.48.48,0,0,0-.216.643.41.41,0,0,0,.038.064.488.488,0,0,0,.444.267.324.324,0,0,0,.267-.089l4.086-2.4c-.178-.267-.354-.622-.533-.888Z" transform="translate(-335.157 -511.898)" fill="#fff"/>
      <path id="Path_291" data-name="Path 291" d="M400.8,510.6a.55.55,0,0,0,.089-.708.47.47,0,0,0-.651-.133.578.578,0,0,0-.057.044l-3.645,3.015c.267.267.444.533.708.8Z" transform="translate(-352.038 -500.033)" fill="#e6e6e6"/>
      <path id="Path_292" data-name="Path 292" d="M342.741,557.936a.551.551,0,0,0-.089.708.678.678,0,0,0,.444.178.53.53,0,0,0,.354-.09l3.642-3.02c-.267-.267-.444-.533-.708-.8Z" transform="translate(-336.257 -513.256)" fill="#fff"/>
      <path id="Path_293" data-name="Path 293" d="M396.345,505.872a.507.507,0,1,0-.785-.64l-.014.018-3.02,3.641a5.8,5.8,0,0,1,.8.708Z" transform="translate(-350.864 -498.677)" fill="#e6e6e6"/>
      <path id="Path_294" data-name="Path 294" d="M347.41,562.539a.471.471,0,0,0,.033.664.422.422,0,0,0,.057.044c.089.089.178.089.354.089s.267-.089.444-.178l3.02-3.642a5.707,5.707,0,0,1-.8-.708Z" transform="translate(-337.639 -514.395)" fill="#fff"/>
      <path id="Path_295" data-name="Path 295" d="M391.165,501.994a.518.518,0,1,0-.875-.554l-.013.021-2.4,4.086c.267.178.622.354.888.533Z" transform="translate(-349.506 -497.552)" fill="#e6e6e6"/>
      <path id="Path_296" data-name="Path 296" d="M385.4,499.012a.562.562,0,0,0-1.066-.354l-1.6,4.441c.354.089.622.267.977.354Z" transform="translate(-348.001 -496.703)" fill="#fff"/>
      <path id="Path_297" data-name="Path 297" d="M379.325,497.163c.089-.267-.178-.533-.444-.622s-.533.178-.622.444l-.8,4.708c.354.089.708.089,1.066.178Z" transform="translate(-346.46 -496.185)" fill="#fff"/>
    </g>
    <circle id="Ellipse_22" data-name="Ellipse 22" cx="20.075" cy="20.075" r="20.075" transform="translate(341.203 503.597)" fill="none" stroke="#fff" stroke-miterlimit="10" stroke-width="1"/>
    <circle id="Ellipse_21" data-name="Ellipse 21" cx="2.03" cy="2.03" r="2.03" transform="translate(365.338 507.16)" fill="#ff6a52"/>
  </g>
</svg>
