[
  {
    "component": "textarea",
    "states": [
      {
        "status": "default",
        "how_to_use": "This is the default state of the element.",
        "code": [
          "<div class='form-group'>",
          "   <label for='default-textarea'>Text area</label>",
          "   <textarea id='default-textarea' class='form-control text-area' maxlength='500'></textarea>",
          "   <div class='form-messages'>",
          "       <span class='maxlength'>500/500</span>",
          "   </div>",
          "</div>"
        ]
      },
      {
        "status": "focused",
        "how_to_use": "A focused state communicates when a user has highlighted a text area using a keyboard or is currently interacting with it.",
        "code": [
          "<div class='form-group'>",
          "   <label for='focused-textarea'>Text area</label>",
          "   <textarea id='focused-textarea' class='form-control text-area' maxlength='500' autofocus></textarea>",
          "   <div class='form-messages'>",
          "       <span class='maxlength'>500/500</span>",
          "   </div>",
          "</div>"
        ]
      },
      {
        "status": "disabled",
        "how_to_use": "This prevents the user from interacting with a field until certain conditions are met. When possible, show an alert or error message to inform users why it is disabled.",
        "code": [
          "<div class='form-group'>",
          "   <label for='disabled-textarea' class='disabled' aria-label='Textarea is disabled'>Text area</label>",
          "   <textarea id='disabled-textarea' class='form-control text-area' maxlength='500' disabled></textarea>",
          "   <div class='form-messages'>",
          "       <span class='maxlength'>500/500</span>",
          "   </div>",
          "</div>"
        ]
      },
      {
        "status": "error",
        "how_to_use": "Use it to indicate there was an error with the field on submission. Only affected fields should be highlighted in red.",
        "code": [
          "<div class='form-group'>",
          "   <label for='error-textarea'>Text area</label>",
          "   <textarea id='error-textarea' class='form-control text-area error' maxlength='500'></textarea>",
          "   <div class='form-messages'>",
          "   <span class='error-msg align-self-start'>",
          "      <i class='eos-icons-outlined eos-18' aria-hidden='true'>error</i>",
          "      You need to insert  at least 200 characters",
          "   </span>",
          "       <span class='maxlength'>500/500</span>",
          "   </div>",
          "</div>"
        ]
      },
      {
        "status": "required-field-approved",
        "how_to_use": "Use this state when you need to highlight that the user has successfully entered the right amount of text.",
        "code": [
          "<div class='form-group'>",
          "   <label for='requeired-textarea'>Text area</label>",
          "   <textarea id='requeired-textarea' class='form-control text-area approved' maxlength='500'>",
          "     Lorem ipsum dolor sit amet, consectetur adipiscing elit. Donec pellentesque eget lectus id viverra. Fusce eros nibh, venenatis vel tincidunt at, lobortis in ipsum.",
          "   </textarea>",
          "   <div class='form-messages'>",
          "       <span class='maxlength'>337/500</span>",
          "   </div>",
          "</div>"
        ]
      },
      {
        "status": "optional",
        "how_to_use": "Use (optional) to indicate non-mandatory fields rather than indicating only mandatory fields. This practice has proved to reduce  stress in users when filling out long forms.",
        "code": [
          "<div class='form-group'>",
          "   <label for='optional-textarea'>Text area <span class='optional-label'> (optional)</span></label>",
          "   <textarea id='optional-textarea' class='form-control text-area ' maxlength='500'></textarea>",
          "   <div class='form-messages'>",
          "       <span class='maxlength'>500/500</span>",
          "   </div>",
          "</div>"
        ]
      }
    ]
  }
]
