<svg xmlns="http://www.w3.org/2000/svg" width="66.997" height="65.322" viewBox="0 0 66.997 65.322">
  <g id="adobe-xd" transform="translate(-917.952 -141.614)">
    <path id="Path_432" data-name="Path 432" d="M919.718,143.379h61.413v59.739H919.718Z" transform="translate(1.026 1.025)" fill="#2e001e"/>
    <path id="Path_433" data-name="Path 433" d="M917.952,141.614v65.321h67V141.614Zm2.792,2.79h61.413v59.739H920.744Z" transform="translate(0 0)" fill="#ff2bc2"/>
    <path id="Path_434" data-name="Path 434" d="M961.97,163.363a3.83,3.83,0,0,0-1.619-.278c-3.516,0-5.862,2.711-5.862,7.2,0,5.136,2.4,7.2,5.528,7.2a5.257,5.257,0,0,0,1.926-.3V163.363Zm-12.5,7.147c0-6.5,4.188-11.585,11.055-11.585a12.709,12.709,0,0,1,1.451.055v-7.264a.281.281,0,0,1,.28-.278h4.488c.223,0,.278.084.278.223v25.515a19.766,19.766,0,0,0,.141,2.735c0,.2,0,.223-.168.3a16.63,16.63,0,0,1-7.144,1.628c-6.058,0-10.385-3.742-10.385-11.335Zm-9.518-4.518,7.814,15.153c.141.223.055.452-.168.452h-4.859a.547.547,0,0,1-.587-.362q-2.68-5.527-5.471-11.474h-.062c-1.674,3.742-3.516,7.816-5.3,11.5a.534.534,0,0,1-.5.3h-4.629c-.28,0-.3-.223-.168-.389l7.648-14.712-7.4-14.628a.247.247,0,0,1,0-.349.24.24,0,0,1,.191-.07h4.8c.28,0,.419.055.5.3,1.758,3.713,3.544,7.37,5.22,11.11h.055c1.619-3.685,3.405-7.4,5.109-11.055.139-.223.223-.362.5-.362h4.494c.223,0,.3.168.167.419Z" transform="translate(4.638 5.69)" fill="#ff2bc2"/>
  </g>
</svg>
