{
  "section": "Media",
  "id": "media",
  "checks": [
    {
      "task": "Ensure that media does not play automatically.",
      "description": "Unexpected video or audio can be distracting and disturbing, especially if you have certain cognitive impairments such as ADHD. Some videos and auto-play animations can cause vestibular disturbances and seizures.",
      "link": "https://www.w3.org/TR/UNDERSTANDING-WCAG20/visual-audio-contrast-dis-audio.html",
      "isCompleted": false
    },
    {
      "task": "Ensure that media controls use the correct markup.",
      "description": "Examples include making sure an audio mute button has a pressed toggle state when active, or that a volume slider uses the <code>type='range'</code> attribute.",
      "link": "https://www.w3.org/TR/UNDERSTANDING-WCAG20/content-structure-separation-programmatic.html",
      "isCompleted": false
    },
    {
      "task": "Make sure that all media can be paused.",
      "description": "Provide a global pause function on any media element. If the device has a keyboard, ensure that pressing the <code>Space</code> key can pause playback. Also ensure that the <code>Space</code> button does not affect page/view scrolling when the form control is not centred.",
      "link": "https://www.w3.org/TR/UNDERSTANDING-WCAG20/keyboard-operation-keyboard-operable.html",
      "isCompleted": false
    }
  ]
}
